%YAML 1.1
%TAG !u! tag:unity3d.com,2011:
--- !u!74 &7400000
AnimationClip:
  m_ObjectHideFlags: 0
  m_CorrespondingSourceObject: {fileID: 0}
  m_PrefabInstance: {fileID: 0}
  m_PrefabAsset: {fileID: 0}
  m_Name: jump
  serializedVersion: 6
  m_Legacy: 0
  m_Compressed: 0
  m_UseHighQualityCurve: 1
  m_RotationCurves: []
  m_CompressedRotationCurves: []
  m_EulerCurves: []
  m_PositionCurves: []
  m_ScaleCurves: []
  m_FloatCurves: []
  m_PPtrCurves:
  - curve:
    - time: 0
      value: {fileID: 21300000, guid: 42dcbe5c437c61e4a8eebcd166831edf, type: 3}
    - time: 0.05
      value: {fileID: 21300000, guid: 5b9d5ed1e3189214c8f8d07350d4c710, type: 3}
    - time: 0.1
      value: {fileID: 21300000, guid: b3b981cc29c4aea418e84c1e8b7496d8, type: 3}
    - time: 0.15
      value: {fileID: 21300000, guid: eb659717bd05489438185c40c7d99385, type: 3}
    - time: 0.41666666
      value: {fileID: 21300000, guid: f8c1efc7d8bff6049a251219734d5bd8, type: 3}
    - time: 0.51666665
      value: {fileID: 21300000, guid: 3439dee5780bb0b4b94324b6eb9694f7, type: 3}
    - time: 0.6
      value: {fileID: 21300000, guid: d1bd1e53e6e57f34fa4875e276572729, type: 3}
    attribute: m_Sprite
    path: 
    classID: 212
    script: {fileID: 0}
  m_SampleRate: 60
  m_WrapMode: 0
  m_Bounds:
    m_Center: {x: 0, y: 0, z: 0}
    m_Extent: {x: 0, y: 0, z: 0}
  m_ClipBindingConstant:
    genericBindings:
    - serializedVersion: 2
      path: 0
      attribute: 0
      script: {fileID: 0}
      typeID: 212
      customType: 23
      isPPtrCurve: 1
    pptrCurveMapping:
    - {fileID: 21300000, guid: 42dcbe5c437c61e4a8eebcd166831edf, type: 3}
    - {fileID: 21300000, guid: 5b9d5ed1e3189214c8f8d07350d4c710, type: 3}
    - {fileID: 21300000, guid: b3b981cc29c4aea418e84c1e8b7496d8, type: 3}
    - {fileID: 21300000, guid: eb659717bd05489438185c40c7d99385, type: 3}
    - {fileID: 21300000, guid: f8c1efc7d8bff6049a251219734d5bd8, type: 3}
    - {fileID: 21300000, guid: 3439dee5780bb0b4b94324b6eb9694f7, type: 3}
    - {fileID: 21300000, guid: d1bd1e53e6e57f34fa4875e276572729, type: 3}
  m_AnimationClipSettings:
    serializedVersion: 2
    m_AdditiveReferencePoseClip: {fileID: 0}
    m_AdditiveReferencePoseTime: 0
    m_StartTime: 0
    m_StopTime: 0.6166667
    m_OrientationOffsetY: 0
    m_Level: 0
    m_CycleOffset: 0
    m_HasAdditiveReferencePose: 0
    m_LoopTime: 1
    m_LoopBlend: 0
    m_LoopBlendOrientation: 0
    m_LoopBlendPositionY: 0
    m_LoopBlendPositionXZ: 0
    m_KeepOriginalOrientation: 0
    m_KeepOriginalPositionY: 1
    m_KeepOriginalPositionXZ: 0
    m_HeightFromFeet: 0
    m_Mirror: 0
  m_EditorCurves: []
  m_EulerEditorCurves: []
  m_HasGenericRootTransform: 0
  m_HasMotionFloatCurves: 0
  m_Events: []
