%YAML 1.1
%TAG !u! tag:unity3d.com,2011:
--- !u!74 &7400000
AnimationClip:
  m_ObjectHideFlags: 0
  m_CorrespondingSourceObject: {fileID: 0}
  m_PrefabInstance: {fileID: 0}
  m_PrefabAsset: {fileID: 0}
  m_Name: still
  serializedVersion: 6
  m_Legacy: 0
  m_Compressed: 0
  m_UseHighQualityCurve: 1
  m_RotationCurves: []
  m_CompressedRotationCurves: []
  m_EulerCurves: []
  m_PositionCurves: []
  m_ScaleCurves: []
  m_FloatCurves: []
  m_PPtrCurves:
  - curve:
    - time: 0.033333335
      value: {fileID: 21300000, guid: b18ca574d6628e04da0eb1ae4b764477, type: 3}
    - time: 0.1
      value: {fileID: 21300000, guid: f7ef81347475dc94cb47026202971e7a, type: 3}
    - time: 0.13333334
      value: {fileID: 21300000, guid: 2cc48714b5a35b04cb76ee1941f02733, type: 3}
    - time: 0.2
      value: {fileID: 21300000, guid: 7411f442562e9e24c9bbb0231d3cbd0a, type: 3}
    - time: 0.23333333
      value: {fileID: 21300000, guid: ba13ba5601168cb469b9c532cca0b249, type: 3}
    - time: 0.26666668
      value: {fileID: 21300000, guid: df2abe31a6bb1a049835c249d1057d49, type: 3}
    - time: 0.5833333
      value: {fileID: 21300000, guid: ba13ba5601168cb469b9c532cca0b249, type: 3}
    - time: 0.65
      value: {fileID: 21300000, guid: 7411f442562e9e24c9bbb0231d3cbd0a, type: 3}
    - time: 0.6666667
      value: {fileID: 21300000, guid: 2cc48714b5a35b04cb76ee1941f02733, type: 3}
    - time: 0.75
      value: {fileID: 21300000, guid: f7ef81347475dc94cb47026202971e7a, type: 3}
    - time: 2.5333333
      value: {fileID: 21300000, guid: f7ef81347475dc94cb47026202971e7a, type: 3}
    - time: 3.9833333
      value: {fileID: 21300000, guid: b18ca574d6628e04da0eb1ae4b764477, type: 3}
    - time: 4.0333333
      value: {fileID: 21300000, guid: f7ef81347475dc94cb47026202971e7a, type: 3}
    - time: 4.05
      value: {fileID: 21300000, guid: 2cc48714b5a35b04cb76ee1941f02733, type: 3}
    - time: 4.1
      value: {fileID: 21300000, guid: 7411f442562e9e24c9bbb0231d3cbd0a, type: 3}
    - time: 4.116667
      value: {fileID: 21300000, guid: ba13ba5601168cb469b9c532cca0b249, type: 3}
    - time: 4.15
      value: {fileID: 21300000, guid: df2abe31a6bb1a049835c249d1057d49, type: 3}
    - time: 4.266667
      value: {fileID: 21300000, guid: ba13ba5601168cb469b9c532cca0b249, type: 3}
    - time: 4.3166666
      value: {fileID: 21300000, guid: 7411f442562e9e24c9bbb0231d3cbd0a, type: 3}
    - time: 4.3333335
      value: {fileID: 21300000, guid: 2cc48714b5a35b04cb76ee1941f02733, type: 3}
    - time: 4.383333
      value: {fileID: 21300000, guid: f7ef81347475dc94cb47026202971e7a, type: 3}
    - time: 4.4333334
      value: {fileID: 21300000, guid: b18ca574d6628e04da0eb1ae4b764477, type: 3}
    - time: 4.483333
      value: {fileID: 21300000, guid: f7ef81347475dc94cb47026202971e7a, type: 3}
    - time: 4.5
      value: {fileID: 21300000, guid: 2cc48714b5a35b04cb76ee1941f02733, type: 3}
    - time: 4.55
      value: {fileID: 21300000, guid: 7411f442562e9e24c9bbb0231d3cbd0a, type: 3}
    - time: 4.5666666
      value: {fileID: 21300000, guid: ba13ba5601168cb469b9c532cca0b249, type: 3}
    - time: 4.6
      value: {fileID: 21300000, guid: df2abe31a6bb1a049835c249d1057d49, type: 3}
    - time: 4.766667
      value: {fileID: 21300000, guid: ba13ba5601168cb469b9c532cca0b249, type: 3}
    - time: 4.8166666
      value: {fileID: 21300000, guid: 7411f442562e9e24c9bbb0231d3cbd0a, type: 3}
    - time: 4.8333335
      value: {fileID: 21300000, guid: 2cc48714b5a35b04cb76ee1941f02733, type: 3}
    - time: 4.883333
      value: {fileID: 21300000, guid: f7ef81347475dc94cb47026202971e7a, type: 3}
    - time: 6.25
      value: {fileID: 21300000, guid: b18ca574d6628e04da0eb1ae4b764477, type: 3}
    attribute: m_Sprite
    path: 
    classID: 212
    script: {fileID: 0}
  m_SampleRate: 60
  m_WrapMode: 0
  m_Bounds:
    m_Center: {x: 0, y: 0, z: 0}
    m_Extent: {x: 0, y: 0, z: 0}
  m_ClipBindingConstant:
    genericBindings:
    - serializedVersion: 2
      path: 0
      attribute: 0
      script: {fileID: 0}
      typeID: 212
      customType: 23
      isPPtrCurve: 1
    pptrCurveMapping:
    - {fileID: 21300000, guid: b18ca574d6628e04da0eb1ae4b764477, type: 3}
    - {fileID: 21300000, guid: f7ef81347475dc94cb47026202971e7a, type: 3}
    - {fileID: 21300000, guid: 2cc48714b5a35b04cb76ee1941f02733, type: 3}
    - {fileID: 21300000, guid: 7411f442562e9e24c9bbb0231d3cbd0a, type: 3}
    - {fileID: 21300000, guid: ba13ba5601168cb469b9c532cca0b249, type: 3}
    - {fileID: 21300000, guid: df2abe31a6bb1a049835c249d1057d49, type: 3}
    - {fileID: 21300000, guid: ba13ba5601168cb469b9c532cca0b249, type: 3}
    - {fileID: 21300000, guid: 7411f442562e9e24c9bbb0231d3cbd0a, type: 3}
    - {fileID: 21300000, guid: 2cc48714b5a35b04cb76ee1941f02733, type: 3}
    - {fileID: 21300000, guid: f7ef81347475dc94cb47026202971e7a, type: 3}
    - {fileID: 21300000, guid: f7ef81347475dc94cb47026202971e7a, type: 3}
    - {fileID: 21300000, guid: b18ca574d6628e04da0eb1ae4b764477, type: 3}
    - {fileID: 21300000, guid: f7ef81347475dc94cb47026202971e7a, type: 3}
    - {fileID: 21300000, guid: 2cc48714b5a35b04cb76ee1941f02733, type: 3}
    - {fileID: 21300000, guid: 7411f442562e9e24c9bbb0231d3cbd0a, type: 3}
    - {fileID: 21300000, guid: ba13ba5601168cb469b9c532cca0b249, type: 3}
    - {fileID: 21300000, guid: df2abe31a6bb1a049835c249d1057d49, type: 3}
    - {fileID: 21300000, guid: ba13ba5601168cb469b9c532cca0b249, type: 3}
    - {fileID: 21300000, guid: 7411f442562e9e24c9bbb0231d3cbd0a, type: 3}
    - {fileID: 21300000, guid: 2cc48714b5a35b04cb76ee1941f02733, type: 3}
    - {fileID: 21300000, guid: f7ef81347475dc94cb47026202971e7a, type: 3}
    - {fileID: 21300000, guid: b18ca574d6628e04da0eb1ae4b764477, type: 3}
    - {fileID: 21300000, guid: f7ef81347475dc94cb47026202971e7a, type: 3}
    - {fileID: 21300000, guid: 2cc48714b5a35b04cb76ee1941f02733, type: 3}
    - {fileID: 21300000, guid: 7411f442562e9e24c9bbb0231d3cbd0a, type: 3}
    - {fileID: 21300000, guid: ba13ba5601168cb469b9c532cca0b249, type: 3}
    - {fileID: 21300000, guid: df2abe31a6bb1a049835c249d1057d49, type: 3}
    - {fileID: 21300000, guid: ba13ba5601168cb469b9c532cca0b249, type: 3}
    - {fileID: 21300000, guid: 7411f442562e9e24c9bbb0231d3cbd0a, type: 3}
    - {fileID: 21300000, guid: 2cc48714b5a35b04cb76ee1941f02733, type: 3}
    - {fileID: 21300000, guid: f7ef81347475dc94cb47026202971e7a, type: 3}
    - {fileID: 21300000, guid: b18ca574d6628e04da0eb1ae4b764477, type: 3}
  m_AnimationClipSettings:
    serializedVersion: 2
    m_AdditiveReferencePoseClip: {fileID: 0}
    m_AdditiveReferencePoseTime: 0
    m_StartTime: 0
    m_StopTime: 6.266667
    m_OrientationOffsetY: 0
    m_Level: 0
    m_CycleOffset: 0
    m_HasAdditiveReferencePose: 0
    m_LoopTime: 1
    m_LoopBlend: 0
    m_LoopBlendOrientation: 0
    m_LoopBlendPositionY: 0
    m_LoopBlendPositionXZ: 0
    m_KeepOriginalOrientation: 0
    m_KeepOriginalPositionY: 1
    m_KeepOriginalPositionXZ: 0
    m_HeightFromFeet: 0
    m_Mirror: 0
  m_EditorCurves: []
  m_EulerEditorCurves: []
  m_HasGenericRootTransform: 0
  m_HasMotionFloatCurves: 0
  m_Events: []
